{
    "name": "acf/theme-image",
    "title": "Theme Image",
    "description": "Theme Image",
    "category": "theme",
    "icon": "admin-comments",
    "apiVersion": 2,
    "keywords": [
        "image"
    ],
    "acf": {
        "mode": "preview",
        "renderTemplate": "render.php"
    },
    "styles": [
        { "name": "left", "label": "Left", "isDefault": true },
        { "name": "center", "label": "Center"},
        { "name": "right", "label": "Right" }
    ],
    "supports": {
        "anchor": true
    }
}