{
	"version": 2,
	"settings": {
		"color": {
			"palette": [
				{
					"name": "Vini",
					"slug": "vini",
					"color": "#000000"
				}
			]
		}
	},
	"supports": {
		"spacing": {
			"margin": [
				"top",
				"bottom"
			],
			"padding": true,
			"blockGap": [
				"horizontal",
				"vertical"
			]
		}
	}
}